[
    { 
        "title": "幻灯片－面板列表布局",
        "fileName": "/templates/weixin/weixinSwiperPanelListTemplate.html"
    },
    { 
        "title": "幻灯片-网格布局",
        "fileName": "/templates/weixin/weixinSwiperGridTemplate.html"
    }
]

